[
   {
      "id":1,
      "nume":"Hristu Nicolae",
      "prenume":null,
      "alias":"hristu-nicolae",
      "biografieArticolId":null,
      "biografieArticol":null,
      "backupBiografie":"",
      "pozaPath":null,
      "poza":"",
      "pozaThumb":"",
      "isDeleted":false
   }
]