{
   "rima":{
      "6":"rim\u0103 variat\u0103",
      "5":"rim\u0103 alb\u0103",
      "4":"monorima",
      "3":"rim\u0103 \u00eembr\u0103\u021bi\u0219at\u0103",
      "2":"rim\u0103 \u00eencruci\u0219at\u0103",
      "1":"rim\u0103 \u00eemperecheat\u0103"
   },
   "specia":{
      "18":"epigram\u0103",
      "17":"epopee",
      "16":"poem",
      "15":"balad\u0103",
      "14":"fabul\u0103",
      "13":"roman\u021b\u0103",
      "12":"glos\u0103",
      "11":"doin\u0103",
      "10":"gazel",
      "9":"rondel",
      "8":"sonet",
      "7":"medita\u021bie",
      "6":"pamflet",
      "5":"satir\u0103",
      "4":"elegie",
      "3":"pastel",
      "2":"od\u0103",
      "1":"imn"
   },
   "structura":{
      "10":"decim\u0103 (decastih)",
      "9":"non\u0103",
      "8":"octav\u0103",
      "7":"septet",
      "6":"sextin\u0103",
      "5":"cvintarie",
      "4":"catren",
      "3":"ter\u021bet",
      "2":"distih",
      "1":"monovers"
   },
   "cicluri":{
      "10":"test2 (felea)",
      "9":"test",
      "8":"Ultimul refugiu",
      "7":"Nelini\u0219ti cenzurate",
      "6":"C\u00e2inii veacului",
      "5":"Toate sunt prezente",
      "4":"Amor universalis",
      "3":"Lacrimi pentru Basarabia",
      "2":"Pas\u0103rea mor\u021bii. Poeme de r\u0103zboi \u0219i captivitate",
      "1":"Jar de spini"
   },
   "picior_metric":{
      "8":"douzecim\u0103",
      "7":"spondeu",
      "6":"anapest",
      "5":"dactil",
      "4":"amfibrah",
      "3":"coriamb",
      "2":"troheu",
      "1":"iamb"
   }
}